{
  "provider": {
    "name": "Fraunhofer-Institut für Angewandte und Integrierte Sicherheit AISEC",
    "serviceName": "Erster Cybersicherheitstag des Fraunhofer AISEC",
    "certificate": "DFN Germany GmbH",
    "information": "Fraunhofer-Institut für Angewandte und Integrierte Sicherheit AISEC\nLichtenbergstraße 11\n185748 Garching b. München\npresse@aisec.fraunhofer.de",
    "usage": "Erfassen der Daten für die Prüfung der Teilnahmeberechtigung"
  },
  "requestedFields": [
    "firstName",
    "lastName",
    "photo"
  ]
}